Delays in NYC airports
…
We can also observe that Airport LGA and JFK perform better than Airport EWR in terms of the average of delays per hour.

1.2 Number of Flights

For each origin and for each value of time_hour, calculate the average departure delay and the number of flights. With those values, plot for each origin airport the average departure delay as a function of number of flights. Comment briefly the obtained result.

by_EWR_total <- flights %>%
  filter(flights$origin == "EWR" & flights$dep_delay > 0) %>%
  group_by(time_hour) %>%
  summarise(Total_Flights = n(),
            AverageDep_Delay = mean(dep_delay)) 
by_EWR_total

# A tibble: 5,984 × 3
   time_hour           Total_Flights AverageDep_Delay
   <dttm>                      <int>            <dbl>
 1 2013-01-01 05:00:00             1             2   
 2 2013-01-01 06:00:00             6            14.8 
 3 2013-01-01 07:00:00             4            46.5 
 4 2013-01-01 08:00:00             7             8   
 5 2013-01-01 09:00:00             7            30.1 
 6 2013-01-01 10:00:00             8             9.38
 7 2013-01-01 11:00:00             2            13   
 8 2013-01-01 12:00:00            10            18.8 
 9 2013-01-01 13:00:00            18            45.9 
10 2013-01-01 14:00:00            13            47.8 
# ℹ 5,974 more rows

by_LGA_total <- flights %>%
  filter(flights$origin == "LGA" & flights$dep_delay > 0) %>%
  group_by(time_hour) %>%
  summarise(Total_Flights = n(),
            AverageDep_Delay = mean(dep_delay)) 
by_LGA_total

# A tibble: 5,743 × 3
   time_hour           Total_Flights AverageDep_Delay
   <dttm>                      <int>            <dbl>
 1 2013-01-01 05:00:00             1             4   
 2 2013-01-01 06:00:00             3            38.3 
 3 2013-01-01 07:00:00             3             4.67
 4 2013-01-01 08:00:00             2            23.5 
 5 2013-01-01 09:00:00             3            45.3 
 6 2013-01-01 10:00:00             5             5.4 
 7 2013-01-01 11:00:00             4            23   
 8 2013-01-01 12:00:00             3            44   
 9 2013-01-01 13:00:00             6             5.83
10 2013-01-01 14:00:00             5            21.2 
# ℹ 5,733 more rows

by_JFK_total <- flights %>%
  filter(flights$origin == "JFK" & flights$dep_delay > 0) %>%
  group_by(time_hour) %>%
  summarise(Total_Flights = n(),
            AverageDep_Delay = mean(dep_delay)) 
by_JFK_total

# A tibble: 6,376 × 3
   time_hour           Total_Flights AverageDep_Delay
   <dttm>                      <int>            <dbl>
 1 2013-01-01 05:00:00             1              2  
 2 2013-01-01 06:00:00             2              7  
 3 2013-01-01 07:00:00             4             24.8
 4 2013-01-01 08:00:00             6             13.8
 5 2013-01-01 09:00:00             9             10.3
 6 2013-01-01 10:00:00             2              1.5
 7 2013-01-01 11:00:00             6             13.8
 8 2013-01-01 12:00:00             7             20  
 9 2013-01-01 13:00:00             5             67.2
10 2013-01-01 14:00:00             6             31.5
# ℹ 6,366 more rows
…
Join the flights and weather datasets, so that we can obtain the weather for each flight.

### Bringing the flights data to similar granularity of the weather data
by_time_hour_airport = flights %>%
  filter(dep_delay > 0) %>%
  group_by(origin, time_hour) %>%
  summarise(totalDelay = mean(dep_delay),totalflightsdelayed = n())

`summarise()` has grouped output by 'origin'. You can override using the
`.groups` argument.

merged_fli_weather <- inner_join(by_time_hour_airport, weather_data, by =c("origin","time_hour")) 
merged_fli_weather

# A tibble: 18,005 × 17
# Groups:   origin [3]
   origin time_hour           totalDelay totalflightsdelayed  year month   day
   <chr>  <dttm>                   <dbl>               <int> <int> <int> <int>
 1 EWR    2013-01-01 05:00:00       2                      1  2013     1     1
 2 EWR    2013-01-01 06:00:00      14.8                    6  2013     1     1
 3 EWR    2013-01-01 07:00:00      46.5                    4  2013     1     1
 4 EWR    2013-01-01 08:00:00       8                      7  2013     1     1
 5 EWR    2013-01-01 09:00:00      30.1                    7  2013     1     1
 6 EWR    2013-01-01 10:00:00       9.38                   8  2013     1     1
 7 EWR    2013-01-01 11:00:00      13                      2  2013     1     1
 8 EWR    2013-01-01 13:00:00      45.9                   18  2013     1     1
 9 EWR    2013-01-01 14:00:00      47.8                   13  2013     1     1
10 EWR    2013-01-01 15:00:00      18.6                   15  2013     1     1
# ℹ 17,995 more rows
# ℹ 10 more variables: hour <int>, temp <dbl>, dewp <dbl>, humid <dbl>,
#   wind_dir <dbl>, wind_speed <dbl>, wind_gust <dbl>, precip <dbl>,
#   pressure <dbl>, visib <dbl>
…
# A tibble: 3 × 3
  .metric     .estimator .estimate
  <chr>       <chr>          <dbl>
1 accuracy    binary         0.554
2 sensitivity binary         0.810
3 specificity binary         0.471

best_model %>%
  predict(test_data, type = "prob")

# A tibble: 11,713 × 2
   .pred_late `.pred_on time`
        <dbl>           <dbl>
 1      0.242           0.758
 2      0.242           0.758
 3      0.242           0.758
 4      0.272           0.728
 5      0.242           0.758
 6      0.280           0.720
 7      0.280           0.720
 8      0.272           0.728
 9      0.316           0.684
10      0.637           0.363
# ℹ 11,703 more rows
…
